{
    "portal_sync": true,
    "responsibles": {
        "1": "IVA Responsable Inscripto",
        "2": "IVA Responsable no Inscripto",
        "3": "IVA no Responsable",
        "4": "IVA Sujeto Exento",
        "5": "Consumidor Final",
        "6": "Responsable Monotributo",
        "7": "Sujeto no Categorizado",
        "8": "Proveedor del Exterior",
        "9": "Cliente del Exterior",
        "10": "IVA Liberado \u2013 Ley N\u00ba 19.640",
        "11": "IVA Responsable Inscripto \u2013 Agente de Percepci\u00f3n",
        "12": "Peque\u00f1o Contribuyente Eventual",
        "13": "Monotributista Social",
        "14": "Peque\u00f1o Contribuyente Eventual Social"
    },
    "comprobantes": {
        "000": "PRESUPUESTO",
        "XXX": "PRESU X",
        "XRX": "RECIBO",
        "FRX": "RECIBO",
        "NCX": "NOTA DE CRÉDITO X",
        "NDX": "NOTA DE DÉBITO X",
        "001": "FACTURA A",
        "002": "NOTA DE DÉBITO A",
        "003": "NOTA DE CRÉDITO A",
        "004": "RECIBO A",
        "006": "FACTURA B",
        "007": "NOTA DE DÉBITO B",
        "008": "NOTA DE CRÉDITO B",
        "009": "RECIBO B",
        "011": "FACTURA C",
        "012": "NOTA DE DÉBITO C",
        "013": "NOTA DE CRÉDITO C",
        "015": "RECIBO C"
    },
    "relcomprobantes": {
        "credit": {
            "XXX": "NCX",
            "001": "003",
            "006": "008",
            "011": "013"
        },
        "debit": {
            "XXX": "NDX",
            "001": "002",
            "006": "007",
            "011": "012"
        },
        "receipt": {
            "XXX": "XRX",
            "001": "FRX",
            "006": "FRX",
            "011": "FRX"
        },
        "invoice": {
            "NDX": "XXX",
            "NCX": "XXX",
            "002": "001",
            "003": "001",
            "007": "006",
            "008": "006",
            "012": "011",
            "013": "011"
        }
    },
    "comprobantesLetter": {
        "000": "X",
        "XXX": "FX",
        "XRX": "RX",
        "FRX": "FRX",
        "NCX": "NCX",
        "NDX": "NDX",
        "001": "FA",
        "004": "RA",
        "002": "NDA",
        "003": "NCA",
        "006": "FB",
        "007": "NDB",
        "008": "NCB",
        "009": "RB",
        "011": "FC",
        "012": "NDC",
        "013": "NCC",
        "015": "RC",
        "091": "RE",
        "099": "OTRO"
    },
    "combinationsInvoices": {
        "1": {
            "1": "001",
            "2": "006",
            "3": "006",
            "4": "006",
            "5": "006",
            "6": "006",
            "7": "006",
            "8": "006",
            "9": "006",
            "10": "006",
            "11": "006",
            "12": "006",
            "13": "006",
            "14": "006"
        },
        "6": {
            "1": "011",
            "2": "011",
            "3": "011",
            "4": "011",
            "5": "011",
            "6": "011",
            "7": "011",
            "8": "011",
            "9": "011",
            "10": "011",
            "11": "011",
            "12": "011",
            "13": "011",
            "14": "011"
        }
    },
    "combinationsCreditNotes": {
        "1": {
            "1": "003",
            "2": "008",
            "3": "008",
            "4": "008",
            "5": "008",
            "6": "008",
            "7": "008",
            "8": "008",
            "9": "008",
            "10": "008",
            "11": "008",
            "12": "008",
            "13": "008",
            "14": "008"
        },
        "6": {
            "1": "013",
            "2": "013",
            "3": "013",
            "4": "013",
            "5": "013",
            "6": "013",
            "7": "013",
            "8": "013",
            "9": "013",
            "10": "013",
            "11": "013",
            "12": "013",
            "13": "013",
            "14": "013"
        }
    },
    "combinationsDebitNotes": {
        "1": {
            "1": "002",
            "2": "007",
            "3": "007",
            "4": "007",
            "5": "007",
            "6": "007",
            "7": "007",
            "8": "007",
            "9": "007",
            "10": "007",
            "11": "007",
            "12": "007",
            "13": "007",
            "14": "007"
        },
        "6": {
            "1": "012",
            "2": "012",
            "3": "012",
            "4": "012",
            "5": "012",
            "6": "012",
            "7": "012",
            "8": "012",
            "9": "012",
            "10": "012",
            "11": "012",
            "12": "012",
            "13": "012",
            "14": "012"
        }
    },
    "doc_types": {
        "96": "DNI",
        "80": "CUIT",
        "86": "CUIL",
        "87": "CDI",
        "89": "LE",
        "90": "LC",
        "94": "PAS",
        "99": "OTRO"
    },
    "accountant_types": {
        "01": "MES VENCIDO",
        "02": "MES ADELANTADO"
    },
    "units_types": {
        "2": "Mts.",
        "7": "Un."
    },
    "concept_types": {
        "1": "Productos.",
        "2": "Servicios.",
        "3": "Productos y Servicios"
    },
    "alicuotas_types": {
        "1": "No Gravado",
        "2": "Excento",
        "3": "0%",
        "9": "2.5%",
        "8": "5%",
        "4": "10.5%",
        "5": "21%",
        "6": "27%"
    },
    "alicuotas_percectage": {
        "1": 0,
        "2": 0,
        "3": 0,
        "9": 0.025,
        "8": 0.05,
        "4": 0.105,
        "5": 0.21,
        "6": 0.27
    },
    "cond_venta": {
        "1": "Contado",
        "69": "Tarjeta de D\u00e9bito",
        "68": "Tarjeta de Cr\u00e9dito",
        "96": "Cuenta Corriente",
        "97": "Cheque",
        "98": "Ticket",
        "99": "Otra"
    },
    "cod_pais": {
        "200": "ARGENTINA"
    }
}