{
	"config": {
		"efectivo": {
		    "name": "Efectivo",
			"logo": "efectivo.jpg",
			"automatic": false,
			"enabled": "1",
			"cash": true,
			"portal": false,
			"model": "EfectivoAccounts",
			"transaction": "EfectivoTransactions",
			"actions": []
		},
		"cheque": {
		    "name": "Cheque",
			"logo": "cheque.jpg",
			"automatic": false,
			"enabled": "1",
			"account": 130000006,
			"banks": [],
			"cash": true,
			"portal": false,
			"model": "ChequeAccounts",
			"transaction": "ChequeTransactions",
			"actions": {
				"config": {
					"name": "Configuraci\u00f3n",
					"link": "\/ChequePaymentMethod\/index",
					"icon": "fa fa-cog",
					"type": "btn-dark",
					"target": "_blank"
				}
			}
		},
		"transferencia": {
		    "name": "Transferencia",
			"logo": "transferencia.png",
			"automatic": false,
			"enabled": "1",
			"account": "",
			"banks": [],
			"cash": true,
			"portal": false,
			"model": "TransferenciaAccounts",
			"transaction": "TransferenciaTransactions",
			"actions": {
				"config": {
					"name": "Configuraci\u00f3n",
					"link": "\/TransferencesPaymentMethod\/index",
					"icon": "fa fa-cog",
					"type": "btn-dark",
					"target": "_blank"
				}
			}
		},
		"debit_cards": {
            "name": "Tarjeta de Débito",
            "logo": "debit_card.png",
            "automatic": false,
            "enabled": "0",
            "account": "",
            "cash": true,
			"portal": false,
            "model": "DebitCardsAccounts",
            "transaction": "DebitCardsTransactions",
            "actions": {
                "config": {
                    "name": "Configuraci\u00f3n",
                    "link": "\/DebitCards\/index",
                    "icon": "fa fa-cog",
                    "type": "btn-dark",
                    "target": "_blank"
                }
            }
        },
        "credit_cards": {
            "name": "Tarjeta de Crédito",
            "logo": "credit_card.png",
            "automatic": false,
            "enabled": "0",
            "account": "",
            "cash": true,
			"portal": false,
			"model": "CreditcardAccounts",
			"transaction": "CreditcardsTransactions",
            "actions": {
                "config": {
                    "name": "Configuraci\u00f3n",
                    "link": "\/CreditCards\/index",
                    "icon": "fa fa-cog",
                    "type": "btn-dark",
                    "target": "_blank"
                }
            }
        },
        "pim": {
            "name": "Pim",
            "logo": "pim.png",
            "automatic": false,
            "enabled": "0",
            "account": "",
            "cash": true,
			"portal": false,
			"model": "PimAccounts",
			"transaction": "PimTransactions",
            "actions": {
                "config": {
                    "name": "Configuraci\u00f3n",
                    "link": "\/Pim\/index",
                    "icon": "fa fa-cog",
                    "type": "btn-dark",
                    "target": "_blank"
                }
            }
        },
        "payu": {
            "name": "PayU",
            "logo": "payu.png",
            "automatic": false,
            "enabled": "0",
            "account": "",
            "api_key": "",
            "api_login": "",
            "merchant_id": "",
            "language": "ES",
            "is_test": "1",
            "cash": true,
			"portal": false,
			"model": "PayuAccounts",
			"transaction": "PayuTransactions",
            "actions": {
                "upload_cards": {
					"name": "Cargar Tarjetas",
					"link": "\/Payu\/upload_cards",
					"icon": "fa fa-upload",
					"type": "btn-primary",
					"target": "_blank"
				},
				"free_cards": {
					"name": "Tarjetas Libres",
					"link": "\/Payu\/cards",
					"icon": "fa fa-table",
					"type": "btn-primary",
					"target": "_blank"
				},
				"used_cards": {
					"name": "Tarjetas Usadas",
					"link": "\/Payu\/usedCards",
					"icon": "fa fa-check",
					"type": "btn-primary",
					"target": "_blank"
				},
				"deleted_cards": {
					"name": "Tarjetas Eliminadas",
					"link": "\/Payu\/deletedCards",
					"icon": "fa fa-ban",
					"type": "btn-primary",
					"target": "_blank"
				},
				"load_payment": {
					"name": "Cargar Pagos",
					"link": "\/Payu\/loadPayment",
					"icon": "fas fa-money-bill-alt",
					"type": "btn-primary",
					"target": "_blank"
				},
				"config": {
                    "name": "Configuraci\u00f3n",
                    "link": "\/Payu\/index",
                    "icon": "fa fa-cog",
                    "type": "btn-dark",
                    "target": "_blank"
                }
            }
        },
		"cobrodigital": {
		    "name": "Cobro Digital",
			"logo": "cobro-digital.jpg",
			"automatic": true,
			"enabled": "1",
			"hours_execution": "15:50",
			"period": "-5 days",
			"account": "130000003",
			"credentials": [],
			"call_soap": "webservice_cobrodigital",
			"url": "https:\/\/www.cobrodigital.com:14365\/ws3\/",
			"plantilla": "init",
			"endpoint_consultar_transacciones": "consultar_transacciones",
			"endpoint_crear_pagador": "crear_pagador",
			"endpoint_editar_pagador": "editar_pagador",
			"endpoint_verificar_existencia_pagador": "verificar_existencia_pagador",
			"endpoint_generar_boleta": "generar_boleta",
			"endpoint_inhabilitar_boleta": "inhabilitar_boleta",
			"endpoint_obtener_codigo_de_barras": "obtener_codigo_de_barras",
			"endpoint_generar_debito_automatico": "generar_debito_automatico",
			"endpoint_obtener_codigo_electronico": "obtener_codigo_electronico",
			"endpoint_consultar_estructura_pagadores ": "consultar_estructura_pagadores",
			"endpoint_consultar_actividad_micrositio": "consultar_actividad_micrositio",
			"endpoint_obtener_boleta_html": "obtener_boleta_html",
			"endpoint_meta": "meta",
			"cash": false,
			"portal": false,
			"model": "CobrodigitalAccounts",
			"transaction": "CobrodigitalTransactions",
			"actions": {
				"export_debts": {
					"name": "Exportar Deudas Homebanking",
					"link": "\/CobroDigital\/exportDebts",
					"icon": "fas fa-university",
					"type": "btn-info",
					"target": "_blank"
				},
				"export_auto_debits": {
					"name": "Exportar D\u00e9bito Autom\u00e1tico",
					"link": "\/CobroDigital\/export-auto-debits",
					"icon": "fa fa-credit-card",
					"type": "btn-info",
					"target": "_blank"
				},
				"export_exported_debits": {
					"name": "Deudas Homebanking Export.",
					"link": "\/CobroDigital\/exportExportedDebts",
					"icon": "fas fa-university",
					"type": "btn-success",
					"target": "_blank"
				},
				"export_exported_auto_debits": {
					"name": "D\u00e9bito Autom\u00e1tico Export.",
					"link": "\/CobroDigital\/export-exported-auto-debits",
					"icon": "fa fa-credit-card",
					"type": "btn-success",
					"target": "_blank"
				},
				"upload_cards": {
					"name": "Cargar Tarjetas",
					"link": "\/CobroDigital\/upload_cards",
					"icon": "fa fa-upload",
					"type": "btn-primary",
					"target": "_blank"
				},
				"free_cards": {
					"name": "Tarjetas Libres",
					"link": "\/CobroDigital\/cards",
					"icon": "fa fa-table",
					"type": "btn-primary",
					"target": "_blank"
				},
				"used_cards": {
					"name": "Tarjetas Usadas",
					"link": "\/CobroDigital\/usedCards",
					"icon": "fa fa-check",
					"type": "btn-primary",
					"target": "_blank"
				},
				"deleted_cards": {
					"name": "Tarjetas Eliminadas",
					"link": "\/CobroDigital\/deletedCards",
					"icon": "fa fa-ban",
					"type": "btn-primary",
					"target": "_blank"
				},
				"config": {
					"name": "Configuraci\u00f3n",
					"link": "\/CobroDigital\/index",
					"icon": "fa fa-cog",
					"type": "btn-dark",
					"target": "_blank"
				}
			}
		},
		"todopago": {
		    "name": "Todo Pago",
			"logo": "todo-pago.png",
			"automatic": false,
			"MODO": "test",
			"enabled": "1",
			"hours_execution": "16:50",
			"period": "-5 days",
			"account": "130000004",
			"test": {
				"merchant_id": "",
                "api_keys": ""
			},
			"prod": {
				"merchant_id": "",
                "api_keys": ""
			},
			"CURRENCYCODE": "32",
			"CSPTCURRENCY": "ARS",
			"URL_OK": "home\/payment-ok\/?order=",
			"URL_ERROR": "home\/credit-card\/?order=",
			"MININSTALLMENTS": "1",
			"MAXINSTALLMENTS": "1",
			"cash": false,
			"portal": false,
			"model": "TodopagoAccounts",
			"transaction": "TodopagoTransactions",
			"actions": {
				"config": {
					"name": "Configuraci\u00f3n",
					"link": "\/TodoPago\/index",
					"icon": "fa fa-cog",
					"type": "btn-dark",
					"target": "_blank"
				}
			}
		},
		"mercadopago": {
		    "name": "Mercado Pago",
			"logo": "mercado-pago.jpg",
			"automatic": false,
			"enabled": "1",
			"hours_execution": "16:50",
			"period": "-5 days",
			"account": "130000005",
			"mode": "prod",
			"application": "",
			"CLIENT_ID": "",
			"CLIENT_SECRET": "",
			"sandbox": {
				"public_key": "",
                "access_token": ""
			},
			"prod": {
				"public_key": "",
                "access_token": ""
			},
			"cash": false,
			"portal": false,
			"model": "MercadopagoAccounts",
			"transaction": "MpTransactions",
			"payment_methods": {
				"visa": "Visa",
				"master": "Mastercard",
				"amex": "American Express",
				"diners": "Diners Club International",
				"naranja": "Tarjeta Naranja",
				"nativa": "Tarjeta Nativa",
				"shopping": "Tarjeta Shopping",
				"cencosud": "Tarjeta Cencosud",
				"cmr_master": "Tarjeta CMR MasterCard",
				"argencard": "Argencard",
				"cordial": "Cordial",
				"cordobesa": "Cordobesa",
				"cabal": "Cabal",
				"debvisa": "Visa Débito",
				"debmaster": "Mastercard Débito",
				"maestro": "Maestro",
				"debcabal": "Cabal Débito",
				"pagofacil": "Pago Fácil",
				"rapipago": "RapiPago",
				"bapropagos": "Provincia Pagos",
				"cargavirtual": "Carga Virtual",
				"cobroexpress": "Cobro Express",
				"redlink": "Red Link",
				"account_money": "Account money"
			},
			"payment_types": {
				"ticket": "Ticket impreso",
				"atm": "Pago en ATM",
				"credit_card": "Pago con tarjeta de crédito",
				"debit_card": "Pago con tarjeta de débito",
				"prepaid_card": "Pago con tarjeta prepaga"
			},
			"excluded_payment_methods": [],
			"excluded_payment_types": [],
			"installments": "1",
			"actions": {
				"config": {
					"name": "Configuraci\u00f3n",
					"link": "\/MercadoPago\/index",
					"icon": "fa fa-cog",
					"type": "btn-dark",
					"target": "_blank"
				}
			}
		},
		"chubut_auto_debit": {
		    "name": "Débito Automático Chubut",
			"logo": "banco-chubut.png",
			"automatic": false,
			"enabled": "1",
			"account": "",
			"cash": false,
			"portal": false,
			"model": "AutoDebitsAccounts",
			"transaction": "AutoDebitsTransactions",
			"actions": {
				"config": {
					"name": "Configuraci\u00f3n",
					"link": "\/DebitAutoChubut\/index",
					"icon": "fa fa-cog",
					"type": "btn-dark",
					"target": "_blank"
				}
			}
		},
		"cuentadigital": {
            "name": "Cuenta Digital",
            "logo": "cuentadigital.png",
            "automatic": false,
            "enabled": "0",
            "account": "",
            "hours_execution": "00:00",
			"period": "",
            "credentials": [],
            "url": "https://www.cuentadigital.com/exportacion.php?control=",
            "cash": true,
			"portal": false,
			"model": "CuentadigitalAccounts",
			"transaction": "CuentadigitalTransactions",
			"url_export": "https:\/\/www.cuentadigital.com\/exportacion.php?control=conrtol_number&fecha=date&hour1=00&min1=00&hour2=23&min2=59",
			"url_generate_barcode": "https:\/\/www.cuentadigital.com\/generador2.php?id=account_number&codigo=customer_code",
			"url_image": "https:\/\/www.cuentadigital.com\/barras.php?codigo=",
            "actions": {
            	"accounts": {
					"name": "Ver Cuentas",
					"link": "\/Cuentadigital\/accounts",
					"icon": "far fa-address-card",
					"type": "btn-primary",
					"target": "_blank"
				},
				"accounts_disabled": {
					"name": "Ver Cuentas deshabilitadas",
					"link": "\/Cuentadigital\/accounts_disabled",
					"icon": "fa fa-ban",
					"type": "btn-primary",
					"target": "_blank"
				},
				"config": {
                    "name": "Configuraci\u00f3n",
                    "link": "\/Cuentadigital\/index",
                    "icon": "fa fa-cog",
                    "type": "btn-dark",
                    "target": "_blank"
                }
            }
        },
        "visa_auto_debit": {
            "name": "Débito Automático Visa",
            "logo": "debito_automatico_visa.jpg",
            "automatic": false,
            "enabled": "0",
            "account": "",
            "cash": true,
			"portal": false,
			"model": "VisaAutoDebitAccounts",
			"transaction": "VisaAutoDebitTransactions",
            "actions": {
            	"export_debts": {
					"name": "Exportar Deudas",
					"link": "\/VisaAutoDebit\/exportDebts",
					"icon": "fas fa-file-excel",
					"type": "btn-info",
					"target": "_blank"
				},
				"debts": {
					"name": "Ver Registros",
					"link": "\/VisaAutoDebit\/showDebts",
					"icon": "far fa-file-alt",
					"type": "btn-info",
					"target": "_blank"
				},
				"show_accounts": {
					"name": "Ver Cuentas",
					"link": "\/VisaAutoDebit\/showAccounts",
					"icon": "far fa-address-card",
					"type": "btn-primary",
					"target": "_blank"
				},
				"show_accounts_disabled": {
					"name": "Cuentas Deshabilitadas",
					"link": "\/VisaAutoDebit\/showAccountsDisabled",
					"icon": "fas fa-ban",
					"type": "btn-primary",
					"target": "_blank"
				},
				"config": {
                    "name": "Configuraci\u00f3n",
                    "link": "\/VisaAutoDebit\/index",
                    "icon": "fa fa-cog",
                    "type": "btn-dark",
                    "target": "_blank"
                }
            }
        },
        "mastercard_auto_debit": {
            "name": "Débito Automático Mastercard",
            "logo": "debito_automatico_mastercard.png",
            "automatic": false,
            "enabled": "0",
            "account": "",
            "cash": true,
			"portal": false,
			"model": "MastercardAutoDebitAccounts",
			"transaction": "MastercardAutoDebitTransactions",
            "actions": {
            	"export_debts": {
					"name": "Exportar Deudas",
					"link": "\/MastercardAutoDebit\/exportDebts",
					"icon": "fas fa-file-excel",
					"type": "btn-info",
					"target": "_blank"
				},
				"debts": {
					"name": "Ver Registros",
					"link": "\/MastercardAutoDebit\/showDebts",
					"icon": "far fa-file-alt",
					"type": "btn-info",
					"target": "_blank"
				},
				"show_accounts": {
					"name": "Ver Cuentas",
					"link": "\/MastercardAutoDebit\/showAccounts",
					"icon": "far fa-address-card",
					"type": "btn-primary",
					"target": "_blank"
				},
				"show_accounts_disabled": {
					"name": "Cuentas Deshabilitadas",
					"link": "\/MastercardAutoDebit\/showAccountsDisabled",
					"icon": "fas fa-ban",
					"type": "btn-primary",
					"target": "_blank"
				},
				"config": {
                    "name": "Configuraci\u00f3n",
                    "link": "\/MastercardAutoDebit\/index",
                    "icon": "fa fa-cog",
                    "type": "btn-dark",
                    "target": "_blank"
                }
            }
		},
		"rapipago": {
		    "name": "Rapipago",
			"logo": "rapipago.png",
			"automatic": false,
			"enabled": "0",
			"account": "",
			"cash": true,
			"portal": false,
			"model": "RapipagoAccounts",
			"transaction": "RapipagoTransactions",
			"actions": {
				"config": {
					"name": "Configuraci\u00f3n",
					"link": "\/Rapipago\/index",
					"icon": "fa fa-cog",
					"type": "btn-dark",
					"target": "_blank"
				}
			}
		}
	},
	"methods": {
		"efectivo": {
			"id": 1,
			"name": "Efectivo",
			"config": "efectivo",
			"edit": false,
			"credential": false,
			"auto_debit": false,
			"lbl_debt": ""
		},
		"cheque": {
			"id": 2,
			"name": "Cheque",
			"config": "cheque",
			"edit": false,
			"credential": false,
			"auto_debit": false,
			"lbl_debt": ""
		},
		"transferencia": {
			"id": 3,
			"name": "Transferencia",
			"config": "transferencia",
			"edit": false,
			"credential": false,
			"auto_debit": false,
			"lbl_debt": ""
		},
		"debit_cards": {
			"id": 4,
			"name": "Tarjeta de Débito",
			"config": "debit_cards",
			"edit": false,
			"credential": false,
			"auto_debit": false
		},
		"credit_cards": {
			"id": 5,
			"name": "Tarjeta de Crédito",
			"config": "credit_cards",
			"edit": false,
			"credential": false,
			"auto_debit": false,
			"lbl_debt": ""
		},
		"pim": {
			"id": 6,
			"name": "Pim",
			"config": "pim",
			"edit": false,
			"credential": false,
			"auto_debit": false,
			"lbl_debt": ""
		},
		"payu_card": {
			"id": 7,
			"name": "PayU",
			"config": "payu",
			"edit": false,
			"credential": true,
			"auto_debit": false,
			"lbl_debt": "Tarjeta PayU"
		},
		"cobrodigital_card": {
			"id": 99,
			"name": "Tarjeta Cobro Digital",
			"config": "cobrodigital",
			"edit": false,
			"credential": true,
			"auto_debit": false,
			"lbl_debt": "Tarjeta Cobro Digital"
		},
		"todopago": {
			"id": 100,
			"name": "Todo Pago",
			"config": "todopago",
			"edit": false,
			"credential": false,
			"auto_debit": false,
			"lbl_debt": ""
		},
		"mercadopago": {
			"id": 101,
			"name": "Mercado Pago",
			"config": "mercadopago",
			"edit": false,
			"credential": false,
			"auto_debit": false,
			"lbl_debt": ""
		},
		"chubut_auto_debit": {
			"id": 102,
			"name": "Débito Automático Chubut",
			"config": "chubut_auto_debit",
			"edit": true,
			"credential": true,
			"auto_debit": true,
			"lbl_debt": "Débito Automático Chubut"
		},
		"cobrodigital_auto_debit": {
			"id": 104,
			"name": "Débito Automático Cobro Digital",
			"config": "cobrodigital",
			"edit": true,
			"credential": true,
			"auto_debit": true,
			"lbl_debt": "Débito Automático Cobro Digital"
		},
		"cuentadigital": {
			"id": 105,
			"name": "Cuenta Digital",
			"config": "cuentadigital",
			"edit": false,
			"credential": true,
			"auto_debit": false,
			"lbl_debt": "Cuenta Digital"
		},
		"visa_auto_debit": {
			"id": 106,
			"name": "Débito Automático Visa",
			"config": "visa_auto_debit",
			"edit": false,
			"credential": true,
			"auto_debit": true,
			"lbl_debt": "Débito Automático Visa"
		},
		"mastercard_auto_debit": {
			"id": 107,
			"name": "Débito Automático Mastercard",
			"config": "mastercard_auto_debit",
			"edit": false,
			"credential": true,
			"auto_debit": true,
			"lbl_debt": "Débito Automático Mastercard"
		},
		"rapipago": {
			"id": 108,
			"name": "Rapipago",
			"config": "rapipago",
			"edit": false,
			"credential": false,
			"auto_debit": false,
			"lbl_debt": "Rapipago"
		}
	}
}