{
    "company_name": "Empresa Ejemplo",
    "company_address": "Calle 123",
    "company_city": "Resistencia",
    "company_phone": "362465847",
    "email": {},
    "logo": "logo-portal.png",
    "color_hex": "#1e0ad6",
    "color_rgb": "30,10,214",
    "enabled": false,
    "show_receipt": false,
    "show_invoice": false,
    "payment_method_credit_card": {
        "mercadopago": "false",
        "todopago": "false"
    },
    "payment_method_cash": {
        "cobrodigital": "false"
    },
    "portal_sync": false,
    "execution_interval": "00:10",
    "batch": "100",
    "uri": "\/",
    "api": "api\/v1\/",
    "uri_base": "",
    "api_base": "api\/v1\/",
    "facebook": "",
    "youtube": "",
    "pinterest": "",
    "instagram": "",
    "last_sync": "",
    "payment_getway": {
        "cobrodigital": {
            "id": 99,
            "name": "Cobro Digital",
            "logo": "cobro-digital.jpg",
            "enabled": "0",
            "credentials": [],
            "call_soap": "webservice_cobrodigital",
            "url": "https:\/\/www.cobrodigital.com:14365\/ws3\/",
            "endpoint_consultar_transacciones": "consultar_transacciones"
        },
        "todopago": {
            "id": 100,
            "name": "Todo Pago",
            "logo": "todo-pago.png",
            "enabled": "0",
            "MODO": "test",
            "test": {
                "merchant_id": "",
                "api_keys": ""
            },
            "prod": {
                "merchant_id": "",
                "api_keys": ""
            },
            "CURRENCYCODE": "32",
            "CSPTCURRENCY": "ARS",
            "URL_OK": "home\/payment-ok\/?order=",
            "URL_ERROR": "home\/credit-card\/?order=",
            "MININSTALLMENTS": "1",
            "MAXINSTALLMENTS": "1"
        },
        "mercadopago": {
            "id": 101,
            "name": "Mercado Pago",
            "logo": "mercado-pago.jpg",
            "enabled": "0",
            "mode": "sandbox",
            "application": "",
            "CLIENT_ID": "",
            "CLIENT_SECRET": "",
            "sandbox": {
                "public_key": "",
                "access_token": ""
            },
            "prod": {
                "public_key": "",
                "access_token": ""
            }
        }
    }
}